<svg xmlns="http://www.w3.org/2000/svg" width="75" height="75" viewBox="0 0 75 75">
  <g transform="translate(-3922.24 -26023.842)">
    <g transform="translate(3922.24 26023.842)">
      <g transform="translate(0 0)">
        <path d="M37.5,0A37.5,37.5,0,1,1,0,37.5,37.5,37.5,0,0,1,37.5,0Z" fill="#101011"/>
        <g transform="translate(11.974 11.596)">
          <path d="M4264.571,11983.215s-9.138,4.223-6.516,7.418c5.328,6.494,12,17.3-4.8,19.56-.519.067,10.884-.78,13.839-5.4,3.779-5.913,2.514-14.055-2.5-21.541" transform="translate(-4219.482 -11963.654)" fill="#ef7913"/>
          <path d="M2934.534,11970.2c-.03.016-11.352,9.3-20.3,3.6-6.462-4.111-9.516-6.09-8.7-14.679.018-.181-.048-.65,0-.477,0,0-.1-.119,0,.237a11.054,11.054,0,0,0,11.595,9.551s14.055.236,24.261-23.969Z" transform="translate(-2900.728 -11925.887)" fill="#ef7913"/>
          <path d="M3815.334,11060.5s-10.062.367-9.168-3.669c1.8-8.206,5.427-21.217-10.587-15.625-.495.17,7.5-3.876,12.243-1.083,6.045,3.567,8.6,11.4,7.5,20.343" transform="translate(-3771.046 -11037.853)" fill="#ef7913"/>
          <path d="M2928.909,11025.332c-.024,0-11.13,8.168-19.08,3-5.74-3.738-7.54-10.5-6.8-18.3a.144.144,0,0,1,.285-.026c.684,2.482.957,13.694,9.1,13.445,0,0,12.483.212,21.546-21.781,0,0,11.1-28.157-11.925-18.93-.783.3-1.071-1.242-.354-1.688a14.97,14.97,0,0,1,15.7-1.173c5.37,3.243,7.638,10.357,6.675,18.485C2944.053,10998.393,2943.375,11017.293,2928.909,11025.332Z" transform="translate(-2898.547 -10978.192)" fill="#fecb00"/>
          <path d="M3905.468,12300q-.264-.4-.543-.78a39.5,39.5,0,0,1-17.162,20.595A33.6,33.6,0,0,0,3905.468,12300Z" transform="translate(-3863.01 -12271.862)" fill="#ffb300"/>
          <path d="M4301.855,11668.064a25.892,25.892,0,0,1,7.575,8.266,36.317,36.317,0,0,0,3.715-9.891,37.076,37.076,0,0,1-10.761.262A6.086,6.086,0,0,1,4301.855,11668.064Z" transform="translate(-4266.86 -11643.569)" fill="#c69200"/>
          <path d="M2799.126,11254.967c-.033,0-15.243-2.346-20.646,6.783-3.9,6.6-5.067,9.4-.444,16.685.1.152.033.461,0,.3-.549-2.788-2.838-9.6,5.463-13.5,0,0,12.426-6.566,32.478,10.4Z" transform="translate(-2774.077 -11247.919)" fill="#ef7913"/>
          <path d="M2748.441,11206.643c-.03,0-13.83-2.1-18.735,6.039-3.54,5.867-2.313,12.6,1.881,19.071a.147.147,0,0,0,.271-.105c-.5-2.478-5.13-12.4,2.4-15.876,0,0,11.274-5.847,29.469,9.258,0,0,22.833,19.569-2.316,21.945-.854.081-.417,1.568.441,1.638a15.723,15.723,0,0,0,14.839-6.1c3.428-5.267,2.279-12.511-2.272-19.179C2774.4,11223.322,2765.256,11207.122,2748.441,11206.643Z" transform="translate(-2727.631 -11200.806)" fill="#fecb00"/>
          <path d="M4435.782,11086.961c.262.32.5.624.721.9.711-7.054-.8-13.416-5.463-16.83a9.658,9.658,0,0,0-1.97-1.1,9.494,9.494,0,0,1,1.323.8C4434.944,11074.061,4436.293,11080.119,4435.782,11086.961Z" transform="translate(-4392.314 -11067.703)" fill="#ffb300"/>
          <g transform="translate(10.856 6.69)">
            <path d="M3410.281,11265.356c-.021-.025-12.866-16.4-31.248-13.979a40.35,40.35,0,0,1,30.84,14.563c5.892,6.818,9.555,14.432,6.762,20.874-.2.466-.231.33-.516.771a5.276,5.276,0,0,0,.927-1.359C3419.837,11279.815,3416.408,11271.955,3410.281,11265.356Z" transform="translate(-3379.034 -11251.134)" fill="#ffb300"/>
          </g>
        </g>
      </g>
    </g>
  </g>
</svg>
